1 861.3
2 817.9
3 808.2
4 808.3
5 839.3
6 722.5
7 813.3
8 805.7
9 790.3
10 863.6
11 817.1
12 797.2
13 810.0
14 758.2
15 820.3
16 893.2
17 840.1
18 900.3
19 819.4
20 831.9
21 823.5
22 826.5
23 793.8
24 868.5
25 823.5
26 807.7
27 797.1
28 745.2
29 863.4
30 811.4
31 802.8
32 840.2
33 782.8
34 854.4
35 836.6
36 826.0
37 853.2
38 794.3
39 738.8
40 851.4
41 842.7
42 751.6
43 870.0
44 761.1
45 830.7
46 845.0
47 802.8
48 780.3
49 825.6
50 872.1
51 788.8
52 839.7
53 822.4
54 858.3
55 832.9
56 858.0
57 837.3
58 813.6
59 821.5
60 865.8
61 788.0
62 815.0
63 799.9
64 803.1
65 747.6
66 764.2
67 791.7
68 793.0
69 846.9
70 859.0
71 876.3
72 795.8
73 800.0
74 801.5
75 850.2
76 818.5
77 842.5
78 847.4
79 818.5
80 752.2
81 832.0
82 844.4
83 858.7
84 829.6
85 792.3
86 777.7
87 833.0
88 817.8
89 819.1
90 862.9
91 824.6
92 797.6
93 859.2
94 793.3
95 824.5
96 812.6
97 827.8
98 813.0
99 800.8
100 791.0
101 780.6
102 801.6
103 842.5
104 796.6
105 847.1
106 852.7
107 772.3
108 840.6
109 852.2
110 868.9
111 822.3
112 801.0
113 857.0
114 776.7
115 821.7
116 810.6
117 789.6
118 803.7
119 779.7
120 824.5
121 824.9
122 837.2
123 881.0
124 787.1
125 882.3
126 764.6
127 794.9
128 897.0
129 793.8
130 899.8
131 806.8
132 825.1
133 842.5
134 820.9
135 861.2
136 861.2
137 849.9
138 838.5
139 826.3
140 862.3
141 751.2
142 870.8
143 760.3
144 857.7
145 821.6
146 841.8
147 778.9
148 820.2
149 814.2
150 793.5
151 843.3
152 842.2
153 796.4
154 894.0
155 799.6
156 813.8
157 804.7
158 833.6
159 836.1
160 827.9
161 786.3
162 808.4
163 785.4
164 799.3
165 807.7
166 777.4
167 809.3
168 849.9
169 818.0
170 816.5
171 857.4
172 803.5
173 828.3
174 833.2
175 851.5
176 755.3
177 824.6
178 827.6
179 857.2
180 824.3
181 794.7
182 861.8
183 783.4
184 860.8
185 824.0
186 874.1
187 796.8
188 838.9
189 808.9
190 835.1
191 810.2
192 866.3
193 844.7
194 853.9
195 825.2
196 793.6
197 776.3
198 812.0
199 847.4
200 789.7
